%YAML 1.1
%TAG !u! tag:unity3d.com,2011:
--- !u!114 &11400000
MonoBehaviour:
  m_ObjectHideFlags: 0
  m_CorrespondingSourceObject: {fileID: 0}
  m_PrefabInstance: {fileID: 0}
  m_PrefabAsset: {fileID: 0}
  m_GameObject: {fileID: 0}
  m_Enabled: 1
  m_EditorHideFlags: 0
  m_Script: {fileID: 11500000, guid: 534a6f29249321643b88fc3500602103, type: 3}
  m_Name: BasicCat
  m_EditorClassIdentifier: 
  name: BasicCat
  description: Cast this card to throw a cat that deals damage to the first hit
  damage: 20
  cooldown: 3
  liveTime: 4
  sprite: {fileID: 21300000, guid: ec9accc61f400994e9e49ef2386232ff, type: 3}
  cardType: 1
  effectType: 0
  castCard: {fileID: 0}
